{
  "name": "fetal_health",
  "path": "./datasets/fetal_health/",
  "task": "Clustering",
  "y": "fetal_health",
  "mod_tokens": [
    "k_means",
    "mb_kmeans"
  ],
  "folds": 5,
  "measure": "pyRAPL"
}