{
  "name": "heart_disease",
  "path": "./datasets/heart_disease/",
  "task": "Binary_Classification",
  "y": "target",
  "mod_tokens": [
    "svm_l",
    "log_reg",
    "gauss_nb",
    "d_tree",
    "perceptron",
    "mlp1",
    "mlp2",
    "mlp3",
    "knn_class",
    "rf_class",
    "svm_rbf_c",
    "svm_poly_c",
    "svm_sig_c",
    "xgb_class"
  ],
  "folds": 5,
  "measure": "pyRAPL"
}