{
  "name": "walmart",
  "path": "./datasets/walmart/",
  "task": "Regression",
  "y": "Weekly_Sales",
  "mod_tokens": [
    "lin_reg",
    "knn_reg",
    "rf_reg",
    "svm_l_reg",
    "xgb_regression"
  ],
  "folds": 5,
  "measure": "pyRAPL"
}