RI,Na,Mg,Al,Si,K,Ca,Ba,Fe,Type
-2.5538499713398926,5.125451588077751,-1.995141842148117,-2.2433353037119845,3.6635675700979404,-0.8839527453982343,-1.7447624907842034,-0.33388713251641217,-0.5846136979762885,4
-0.14321783908185237,-1.126212821200141,0.5488478575209816,-0.05494744973764704,0.6272769350131304,0.13375188599753582,-0.23258820975297248,-0.33388713251641217,-0.5846136979762885,0
3.389668762098837,0.4820991845062053,0.28143984931712746,-1.600872814471812,-2.8389309581368165,-0.7411170076584771,2.2476976480231237,-0.33388713251641217,-0.5846136979762885,1
0.14842065777634653,-0.42581888323124945,0.8740738134445882,-0.5367943166677764,-0.3266019813188377,0.18731528764994482,-0.3205983530934141,-0.33388713251641217,-0.5846136979762885,1
-0.597287903810343,1.9607086091071992,-1.995141842148117,0.8284384729675905,0.5735372777549836,-0.8839527453982343,-0.12857622216881304,2.5033719791588833,-0.5846136979762885,5
-0.10630157365677118,-0.28314604401536236,0.03571357150818054,-0.33602478878022235,0.39888339166603975,0.02662508269271799,0.15145605209622964,-0.33388713251641217,0.3381765391370531,0
-0.7781776043932983,-0.8278968846578366,0.6138930487057028,0.32651465324870577,0.38544847735149823,0.2587331565198235,-0.608631549480315,-0.33388713251641217,2.081224764795587,0
-0.20597549030449863,-0.8019563684367648,0.5849840748458267,-0.21556307204768987,0.4526230489241675,0.22302422208488415,-0.19258359914368006,-0.33388713251641217,-0.5846136979762885,0
-0.19490061067698244,-0.049681398025731856,0.6500292660305482,-0.5367943166677764,0.14362001968988516,0.13375188599753582,-0.4486131070431481,-0.33388713251641217,0.5432410362733513,0
0.19641180282894388,-0.08859217235733848,0.4838026663362605,-0.05494744973764704,-0.5684304389804509,0.02662508269271799,-0.18458267702182185,-0.33388713251641217,-0.5846136979762885,1
-0.20966711684694936,-0.78898611032623,0.5705295879158886,0.06551426699488543,0.0898803624317383,0.080188484345127,-0.24859005399668888,-0.33388713251641217,1.3634990248185437,0
0.15211228431887924,0.2745750547376444,0.8018013787948978,-0.37617869435773316,-0.9714778684165045,0.080188484345127,-0.4086084964338557,-0.33388713251641217,2.6964182562044816,1
0.7870720496303252,0.7155638304958358,-1.019463974377298,0.3465916060374607,-1.2401761547071815,-0.18762852391691784,1.3835980588624195,-0.33388713251641217,1.2609667762503947,1
-0.4939223606201648,-0.1664137210205471,0.6355747791006101,0.14582207814990705,-0.20568775248802165,0.2765876237372932,-0.6406352379677492,-0.33388713251641217,2.3888215105000343,1
0.299777346019204,2.0255598996598754,-1.4314168518805326,0.5674380867137703,-0.24599249543162702,-0.8839527453982343,0.8955418094290579,-0.33388713251641217,-0.5846136979762885,4
1.2706751266989136,-3.110662312112005,-0.7592832096384129,0.2060529365161733,1.0168894501346235,0.15160635321500548,2.2316958037794055,-0.33388713251641217,-0.5846136979762885,3
-0.648970675405473,-0.11453268857840802,0.5849840748458267,0.2261298893049287,0.25109933420615976,0.20516975486741448,-0.7526481476737661,-0.33388713251641217,-0.5846136979762885,1
0.16687879048892812,0.8582366697117206,-0.4123755233198994,0.40682246440372694,-0.017598952084536306,-0.8839527453982343,0.3914837157519813,-0.33388713251641217,-0.5846136979762885,4
0.08197138001116756,-0.24423526968375806,0.8234831091898047,-0.09510135531515787,-0.4743860387787177,0.09804295156259667,-0.41660941855571393,-0.33388713251641217,0.4407087877052022,1
-0.8003273636483306,-0.5295809481155299,0.5922113183107959,0.10566817257239625,0.5869721920695251,0.3480054926071716,-0.6966416928207573,-0.33388713251641217,-0.5846136979762885,1
-0.4163982032274697,-0.737105077884091,0.5922113183107959,-0.29587088320271154,-0.09820843797174704,0.20516975486741448,-0.032565156706513214,-0.33388713251641217,-0.5846136979762885,2
-0.8852347741260091,-0.1793839791310842,0.49825715326619857,-0.49664041109026563,0.07644544811719682,0.11589741878006633,-0.20858544338739646,-0.33388713251641217,-0.5846136979762885,0
1.0860937995735074,0.2745750547376444,1.249890473622978,-0.7174868917665747,-1.2133063260781176,-0.7768259420934165,-0.06456884519394601,-0.33388713251641217,-0.5846136979762885,0
0.3846847564968826,0.6118017656115554,0.7006199702853313,-0.5568712694565319,-0.7565192393839362,-0.7768259420934165,0.04744406451207163,-0.33388713251641217,-0.5846136979762885,0
0.3625349972418503,0.7415043467169053,-0.2678306540205187,0.2060529365161733,-0.4206463815205709,-0.8839527453982343,0.5915067687984406,-0.33388713251641217,-0.5846136979762885,4
0.02290535533105403,0.002199634416407236,0.8813010569095571,-0.5568712694565319,-0.2594274097461685,0.15160635321500548,-0.5446241725054479,-0.33388713251641217,-0.5846136979762885,1
0.9273538582456665,-0.7500753359946257,-0.8315556442881031,1.430747056630252,-0.6759097534967254,0.4729867631294593,0.6955187563825986,0.1595492347314653,4.644530978999314,3
-0.715419953170652,0.5858612493904858,-0.7086925053836296,0.6678228506575473,0.5601023634404421,-0.8839527453982343,-0.12857622216881304,1.2286613637685333,-0.5846136979762885,5
0.3994512626669315,-0.9057184333210453,-0.6581018011288464,0.8083615201788351,0.009270876544527575,0.18731528764994482,1.0075547191350755,-0.33388713251641217,-0.5846136979762885,3
1.3481992840916086,0.06705092496908341,0.7078472137503005,-1.1190259475416826,-0.9043032968438162,-0.5625723354837806,0.6235104572858734,-0.33388713251641217,0.13311204200075502,0
-0.5603716383852618,-0.023740881804662307,0.4548936924763844,-0.3561017415689778,-0.05790369502814167,0.044479549910187655,-0.14457806641252943,-0.33388713251641217,-0.5846136979762885,2
-0.6969618204580704,0.13190221552175727,0.5705295879158886,0.16589903093866248,0.4123183059805621,-0.18762852391691784,-0.8406582910142077,-0.33388713251641217,-0.5846136979762885,0
-0.0029360304665110104,-0.5555214643365995,0.7512106745401144,-0.7576407973440855,0.5197976204968368,0.11589741878006633,-0.3606029637027051,-0.33388713251641217,0.6457732848415003,1
-0.3610238050898069,-0.5555214643365995,0.5127116401961367,0.6678228506575473,0.04957561948813294,0.2944420909547628,-0.5206214061398734,-0.33388713251641217,-0.5846136979762885,1
-0.18751735759191704,-0.3609675926785733,0.6138930487057028,-0.8178716557103518,0.7481911638439275,0.13375188599753582,-0.47261587340872274,-0.33388713251641217,-0.5846136979762885,0
-1.468511767842407,1.0657607994802816,0.23807638852731325,1.2500544815314538,-0.5415606103513869,1.0800386485234277,-1.4007228395442939,-0.33388713251641217,-0.5846136979762885,1
-0.15060109216683584,-0.28314604401536236,0.6717109964254552,-0.33602478878022235,-0.09820843797174704,0.13375188599753582,-0.4886177176524391,-0.33388713251641217,-0.5846136979762885,0
-0.14321783908185237,-1.0094804982053258,0.5777568313808579,-0.3159478359914669,0.5332325348113782,0.20516975486741448,-0.11257437792509663,-0.33388713251641217,0.8508377819777986,0
-0.27611639461212834,1.9736788672177341,-1.995141842148117,0.6878998034463027,0.4123183059805621,-0.8839527453982343,-0.17658175489996364,2.852889405959463,-0.5846136979762885,5
1.012261268723345,0.45615866828513346,-0.3473303321351783,-0.05494744973764704,-0.9311731254728991,-0.009083851742221353,0.8155325882104745,-0.33388713251641217,1.1584345276822459,1
-0.5234553729601806,-0.3739378507891081,0.49825715326619857,0.607591992291281,-0.2728623240606909,0.18731528764994482,-0.3606029637027051,-0.33388713251641217,1.1584345276822459,2
-0.05092717551910838,-0.8278968846578366,0.5343933705910436,-0.6773329861890639,0.46605796323870896,0.2587331565198235,-0.04856700095022961,-0.33388713251641217,-0.5846136979762885,0
-0.5751381445553106,1.2343741549172382,-1.995141842148117,0.968977142488878,1.2452829934817142,-0.8839527453982343,-0.28059374248412167,2.8940091032301196,-0.5846136979762885,5
0.12627089852131418,-0.6463132711103452,0.7078472137503005,-0.6974099389778193,-0.5415606103513869,0.2587331565198235,0.10345051936508046,-0.33388713251641217,1.6710957705229912,1
1.3666574168041903,0.4172478939535292,-1.265190252186245,-0.19548611925893447,-0.6624748391822031,-0.29475532722173575,1.8476515419302049,-0.33388713251641217,-0.5846136979762885,1
-0.10260994711423846,-0.28314604401536236,0.4548936924763844,-0.2557169776252007,0.10331527674627979,0.16946082043247515,-0.19258359914368006,-0.33388713251641217,-0.5846136979762885,0
-0.13952621253931966,0.28754531284817914,0.6500292660305482,-0.6974099389778193,0.11675019106080219,-0.6875536060060682,-0.18458267702182185,-0.33388713251641217,-0.5846136979762885,2
-0.3536405520048234,-0.6981943035524844,0.6211202921706721,0.2261298893049287,0.37201356303695676,0.20516975486741448,-0.5766278609928822,-0.33388713251641217,-0.5846136979762885,1
-0.7301864593407009,2.051500415880945,-1.995141842148117,2.113363451447935,0.49292779186777286,-0.7946804093108861,-0.0005614682190789902,0.755784845155984,-0.5846136979762885,5
-0.5419135056727622,-0.5684917224471343,0.30312157971203474,-0.4564865055127548,0.38544847735149823,0.15160635321500548,-0.01656331246279539,-0.33388713251641217,1.876160267659289,1
-0.7892524840208145,-0.43878914134178426,0.5994385617757648,0.12574512536115165,0.5601023634404421,0.3122965581722325,-0.800653680404916,-0.33388713251641217,-0.5846136979762885,1
-0.3647154316323396,0.37833711962192484,0.6644837529604862,0.7079767562350581,-0.8371287252711469,0.2587331565198235,-0.7606490697956243,-0.33388713251641217,-0.5846136979762885,1
-0.7264948327981682,-0.1275029466889428,0.5560751009859506,-0.2356400248364453,-0.017598952084536306,0.11589741878006633,-0.4006075743119975,-0.33388713251641217,-0.5846136979762885,2
-0.2170503699320148,-0.737105077884091,0.5777568313808579,-0.37617869435773316,0.707886420900322,0.080188484345127,-0.3606029637027051,-0.33388713251641217,1.1584345276822459,0
-0.161675971794352,-0.8149266265472995,0.6500292660305482,-0.37617869435773316,0.4391881346096451,0.18731528764994482,-0.21658636550925464,-0.33388713251641217,-0.5846136979762885,0
-1.0808909808790133,1.843976286112384,-1.995141842148117,1.932670876349137,1.393067050941594,-0.8839527453982343,-0.3526020415808469,0.8174643910619688,-0.5846136979762885,5
-0.6157460365229246,-1.1391830793106759,0.5199388836611055,0.8284384729675905,0.734756249529405,0.24087868930235382,-0.6006306273584567,-0.33388713251641217,0.3381765391370531,1
-0.19490061067698244,0.06705092496908341,0.7078472137503005,-0.5769482222452873,0.4123183059805621,0.16946082043247515,-0.6406352379677492,-0.33388713251641217,-0.5846136979762885,0
0.4695921669745612,0.2745750547376444,0.5633023444509198,-1.4201802393730136,-0.044468780713600185,-0.5982812699187199,0.04744406451207163,-0.025489402986488767,1.876160267659289,2
-0.5677548914703272,-1.9173985659427806,-1.995141842148117,-0.5367943166677764,3.354564540863658,3.9367534033185723,0.07944775299950443,-0.33388713251641217,-0.5846136979762885,5
0.08197138001116756,1.3381362198015188,-0.37623930599505406,0.32651465324870577,-0.40721146720604845,-0.8839527453982343,0.3434781830208307,-0.33388713251641217,-0.5846136979762885,4
0.04874674112861907,-1.0483912725369324,-0.0004226458166648034,-1.2595646170629706,1.5139812797724104,-0.25904639278679653,0.47149293697056477,-0.33388713251641217,1.466031273386693,1
-0.7264948327981682,-0.010770623694127537,0.46212093594135323,-0.4765634583015102,0.009270876544527575,0.16946082043247515,-0.4086084964338557,-0.33388713251641217,-0.5846136979762885,2
-0.11737645328428734,-0.7500753359946257,0.5199388836611055,-0.4564865055127548,0.38544847735149823,0.20516975486741448,-0.21658636550925464,-0.14884849479845813,1.6710957705229912,0
0.04136348804363562,0.37833711962192484,-1.995141842148117,-1.801642342359366,2.373815795902626,-0.8839527453982343,1.727637710102329,-0.33388713251641217,-0.5846136979762885,1
-0.8040189901908633,-0.7111645616630191,0.4838026663362605,-0.11517830810391327,0.8019308211020743,0.3480054926071716,-0.6246333937240314,-0.33388713251641217,1.876160267659289,0
-0.5935962772678922,-0.5036404318944604,0.46212093594135323,-0.3962556471464886,0.4391881346096451,0.044479549910187655,-0.20058452126553825,-0.33388713251641217,-0.5846136979762885,2
0.37730150341189916,0.5988315075010205,0.5560751009859506,-0.2757939304139561,-1.1730015831345122,0.02662508269271799,-0.04056607882837141,-0.10772879752780166,-0.5846136979762885,0
-0.8778515210410257,-0.24423526968375806,0.5271661271260747,0.025360361417374598,0.7616260781584689,-0.20548299113438753,-0.6406352379677492,-0.33388713251641217,-0.5846136979762885,1
1.8207274815326808,-0.15344346291001235,0.5922113183107959,-1.279641569851726,-0.9311731254728991,-0.6696991387885985,1.0715620961099426,-0.33388713251641217,-0.2770169522718413,0
1.2743667532414462,-0.49067017378392336,0.6428020225655791,-1.179256805907949,-0.6221700962385976,-0.544717868266311,0.8155325882104745,-0.33388713251641217,1.1584345276822459,0
-0.5492967587577456,1.7791249955597102,-1.995141842148117,1.0693619064326552,0.5735372777549836,-0.8839527453982343,-0.44061218492128995,3.181846984124715,-0.5846136979762885,5
0.3366936114442853,0.19675350607443343,0.4259847186165082,-0.4564865055127548,-0.8102588966420831,0.16946082043247515,0.06344590875578802,-0.33388713251641217,-0.5846136979762885,0
-0.49023073407763207,-0.7241348197735561,0.5777568313808579,0.36666855882621613,0.613842020698589,0.2765876237372932,-0.672638926455182,-0.33388713251641217,-0.5846136979762885,1
0.5987990959623865,-1.0224507563158605,-1.995141842148117,0.38674551161497156,1.4333717938851995,-0.20548299113438753,2.1596875046826804,-0.33388713251641217,-0.5846136979762885,3
-0.2834996476971118,-1.3985882415213782,-0.02933161967654063,0.3465916060374607,0.25109933420615976,0.3658599598246413,0.3194754166552561,-0.33388713251641217,-0.5846136979762885,1
-0.1690592248794174,0.5988315075010205,0.606665805240734,-0.19548611925893447,0.06301053380267442,-0.02693831895969102,-0.800653680404916,-0.33388713251641217,-0.5846136979762885,0
0.015522102246070578,-0.1275029466889428,0.7873468918649598,-0.41633259993524396,0.13018510537534367,0.044479549910187655,-0.568626938871024,-0.33388713251641217,-0.5846136979762885,1
0.3625349972418503,0.22269402229550297,0.6211202921706721,-0.6974099389778193,-0.05790369502814167,-0.6339902043536592,-0.05656792307208781,-0.33388713251641217,-0.5846136979762885,0
-0.6711204346605054,-0.08859217235733848,0.5922113183107959,0.06551426699488543,0.04957561948813294,-0.08050172061209993,-0.4966186397742973,-0.33388713251641217,-0.5846136979762885,1
-0.26504151498461215,-0.5295809481155299,0.5633023444509198,0.4670533227699932,0.06301053380267442,0.080188484345127,-0.3125974309715559,-0.33388713251641217,0.13311204200075502,0
0.22963644171157435,-0.3090865602364342,0.4404392055464463,-0.5568712694565319,0.04957561948813294,0.13375188599753582,-0.0005614682190789902,-0.33388713251641217,1.0559022791140966,0
-0.2945745273247099,1.6494224144543579,-1.995141842148117,1.7720552540390935,0.8019308211020743,-0.8839527453982343,0.09544959724322083,1.023062877415251,-0.5846136979762885,5
-0.504997240247681,-0.24423526968375806,0.5849840748458267,-0.1553322136814241,0.02270579085906906,0.11589741878006633,-0.3125974309715559,-0.33388713251641217,0.4407087877052022,2
-0.7781776043932983,-0.5295809481155299,0.5777568313808579,0.16589903093866248,0.5735372777549836,0.40156889425958064,-0.7446472255519072,-0.33388713251641217,-0.5846136979762885,1
-0.6785036877455708,0.9230879602643968,-1.995141842148117,2.8562107046318848,-0.09820843797174704,-0.7411170076584771,0.2794708060459637,1.84545682282838,-0.5846136979762885,5
-0.663737181575522,-0.5555214643365995,0.5922113183107959,0.16589903093866248,0.1973596769480129,0.20516975486741448,-0.632634315845891,-0.33388713251641217,-0.5846136979762885,1
-0.8704682679560423,-0.91868869143158,0.5054843967311675,0.2060529365161733,0.6944515065857997,0.3122965581722325,-0.5926297052365985,-0.33388713251641217,1.876160267659289,0
1.4995559723344662,1.0138797670381425,0.7656651614700525,-1.9823349174581646,-1.226741240392659,-0.6875536060060682,0.5915067687984406,-0.33388713251641217,-0.5846136979762885,0
1.8945600123829252,0.37833711962192484,0.6933927268203625,-1.902027106303143,-1.253611069021723,-0.7232625404410076,0.9835519527695009,-0.33388713251641217,1.0559022791140966,0
-0.11368482674175462,0.13190221552175727,0.46934817940632245,0.12574512536115165,-0.8639985539002107,0.15160635321500548,-0.032565156706513214,-0.33388713251641217,-0.5846136979762885,2
0.41052614229444767,0.7933853791590445,0.5922113183107959,-0.17540916647017907,-0.8102588966420831,0.11589741878006633,-0.4246103406775721,-0.33388713251641217,-0.5846136979762885,0
0.11888764543624877,-0.7500753359946257,0.6572565094955171,-0.4364095527239994,-0.1519480952298939,0.22302422208488415,-0.12057530004695483,-0.33388713251641217,3.0040150019089285,1
0.5877242163348703,1.7402142212281035,0.7150744572152694,-2.3437200676557617,-0.8908683825292938,-0.8303893437458254,0.13545420785251325,-0.33388713251641217,-0.5846136979762885,0
0.9642701236707477,0.15784273174282912,-0.4846479579695898,0.42689941719248237,-0.6759097534967254,0.06233401712765733,0.5915067687984406,0.22122878063745002,1.1584345276822459,1
0.6910897595251304,-0.20532449535215372,-1.995141842148117,0.607591992291281,0.46605796323870896,-0.04479278617716069,1.9916681401236553,-0.33388713251641217,-0.5846136979762885,3
-2.184687317088999,-0.5684917224471343,0.5127116401961367,-0.6773329861890639,0.39888339166603975,0.22302422208488415,-0.38460573006828114,-0.33388713251641217,2.5938860076363324,0
-0.7560278451382659,1.843976286112384,-1.995141842148117,1.8523630651941152,0.8019308211020743,-0.8839527453982343,-0.05656792307208781,0.9819431801445945,0.3381765391370531,5
-0.1690592248794174,-0.8019563684367648,0.5633023444509198,-0.4564865055127548,0.7481911638439275,0.15160635321500548,-0.3526020415808469,-0.33388713251641217,-0.5846136979762885,0
1.3666574168041903,-0.29611630212589946,0.6644837529604862,-0.617102127822798,0.0898803624317383,0.080188484345127,-0.24859005399668888,-0.33388713251641217,-0.5846136979762885,1
1.5364722377595474,-0.28314604401536236,0.7295289441452074,-1.339872428217992,-0.9311731254728991,-0.6518446715711289,0.9515482642820667,-0.33388713251641217,-0.5846136979762885,0
-1.8745906875183003,1.2603146711383078,-0.7376014792435057,0.16589903093866248,2.5081649390479646,-0.8839527453982343,-0.9926758113295171,-0.33388713251641217,-0.5846136979762885,4
1.48848109270695,0.3913073777324596,0.7801196483999906,-1.48041109773928,-1.2401761547071815,-0.5804268027012501,0.7275224448700328,-0.33388713251641217,-0.5846136979762885,0
-0.4348563359399693,-0.9835399819842562,0.08630427576296364,0.507207228347504,0.707886420900322,0.41942336147705034,-0.23258820975297248,-0.33388713251641217,-0.5846136979762885,1
-0.5160721198751972,-0.6333430129998104,0.6138930487057028,-0.3962556471464886,0.0898803624317383,0.11589741878006633,-0.18458267702182185,-0.33388713251641217,-0.5846136979762885,1
0.13734577814883037,-0.23126501157322327,0.7223017006802382,-0.2757939304139561,-0.3803416385769655,0.15160635321500548,-0.32859927521527227,-0.33388713251641217,-0.5846136979762885,1
-0.7855608574782817,-0.43878914134178426,0.5488478575209816,0.1859759837274179,0.25109933420615976,0.33015102538970215,-0.6246333937240314,-0.33388713251641217,0.3381765391370531,1
-0.03985229589159221,0.09299144119015294,0.4332119620814771,0.3465916060374607,-0.9983476970455684,0.13375188599753582,-0.01656331246279539,-0.33388713251641217,0.3381765391370531,2
-0.530838626045246,-0.6463132711103452,0.5633023444509198,0.32651465324870577,0.37201356303695676,0.2587331565198235,-0.6406352379677492,-0.33388713251641217,1.568563521954842,1
-0.4570060951950836,1.4678388009068688,-1.995141842148117,1.0492849536438997,0.8153657354166157,-0.8839527453982343,-0.24859005399668888,2.8940091032301196,0.13311204200075502,5
-2.4947839466597794,0.33942634529031823,0.3175760666419728,0.7079767562350581,0.17048984831894903,2.258433484876425,-2.720874989650925,2.112734855087647,-0.5846136979762885,5
-0.7892524840208145,-0.23126501157322327,0.49825715326619857,-0.05494744973764704,0.6541467636421943,0.20516975486741448,-0.7766509140393407,-0.33388713251641217,-0.5846136979762885,1
0.08935463309623298,1.247344413027773,-1.995141842148117,0.7280537090238135,0.23766441989161827,1.6335271322649867,-1.8887790889776546,5.587349274458117,-0.5846136979762885,5
-0.966450558061237,0.9230879602643968,-1.995141842148117,2.4546716488567775,0.9497148785619542,-0.7411170076584771,0.19146066270552206,0.9202636342386097,-0.07195245513554314,5
0.40314288920946423,0.9360582183749316,-1.995141842148117,1.2701314343202088,0.07644544811719682,-0.8839527453982343,1.6396275667618876,-0.33388713251641217,-0.5846136979762885,4
0.004447222618554413,0.002199634416407236,0.07907703229799476,-0.5367943166677764,0.2107945912625544,0.09804295156259667,0.15945697421808785,-0.33388713251641217,-0.5846136979762885,0
3.5816333423093085,-1.0224507563158605,-1.995141842148117,-1.5807958616830566,-0.8908683825292938,-0.7768259420934165,4.455952153656034,-0.33388713251641217,-0.5846136979762885,1
-0.5603716383852618,-0.8797779170999758,0.06462254536805669,-0.03487049694889163,0.7884959067875328,0.13375188599753582,-0.032565156706513214,-0.10772879752780166,1.6710957705229912,1
-0.6969618204580704,-0.5425512062260647,0.5343933705910436,0.04543731420613001,0.27796916283522366,0.18731528764994482,-0.568626938871024,-0.33388713251641217,-0.5846136979762885,1
1.6250712747797587,1.856946544222919,-0.40514827985493024,1.209900575953943,-3.255413301887373,0.4729867631294593,0.7435242891137492,-0.33388713251641217,-0.5846136979762885,5
0.2407113213390905,-0.6463132711103452,0.6500292660305482,0.2060529365161733,-0.23255758111708552,0.15160635321500548,-0.22458728763111285,-0.33388713251641217,0.6457732848415003,1
-0.44223958902503474,-0.25720552779429284,0.5633023444509198,0.04543731420613001,0.2107945912625544,0.11589741878006633,-0.5846287831147404,-0.33388713251641217,-0.5846136979762885,1
0.11519601889379803,1.1565526062540272,0.3609395274317867,1.5311318205740294,-1.9253567847484536,1.722799468352335,-2.4328417932640236,3.017368195042089,-0.5846136979762885,5
-0.15798434525181929,-0.5814619805576691,0.5633023444509198,-0.49664041109026563,0.4257532202951036,0.2765876237372932,-0.24058913187483066,-0.33388713251641217,-0.5846136979762885,0
-0.2392001291870471,-0.20532449535215372,0.6211202921706721,-0.4364095527239994,0.5332325348113782,0.09804295156259667,-0.608631549480315,-0.33388713251641217,-0.5846136979762885,0
1.5327806112170146,1.2992254454699121,-1.995141842148117,-0.9182564196541289,-0.017598952084536306,-0.7054080732235378,2.1516865825608225,-0.33388713251641217,0.23564429056890404,1
-0.13952621253931966,-1.2688856604160281,-0.03655886314150983,-0.33602478878022235,1.3661972223125303,0.11589741878006633,0.18345974058366388,-0.33388713251641217,1.876160267659289,0
1.4921727192494827,0.9879392508170707,0.7367561876101764,-1.0989489947529272,-1.7775727272885735,-0.47329999939643236,0.2474671175585309,-0.33388713251641217,3.209079499045227,2
-0.06569368168915725,-0.3090865602364342,0.8234831091898047,-0.3159478359914669,-0.4743860387787177,0.09804295156259667,-0.3125974309715559,-0.33388713251641217,2.2862892619318855,1
-0.6563539284905385,-0.9316589495421148,0.41153023168657016,0.06551426699488543,0.8019308211020743,0.3122965581722325,-0.47261587340872274,-0.33388713251641217,-0.5846136979762885,1
1.4995559723344662,1.0138797670381425,0.7656651614700525,-1.9823349174581646,-1.226741240392659,-0.6875536060060682,0.5915067687984406,-0.33388713251641217,-0.5846136979762885,0
-0.08415181440165687,-0.451759399452319,0.5271661271260747,-0.3561017415689778,0.23766441989161827,0.18731528764994482,-0.27259282036226345,-0.33388713251641217,-0.5846136979762885,0
0.1447290312338138,-0.023740881804662307,0.8162558657248359,-0.2557169776252007,-0.40721146720604845,0.02662508269271799,-0.44061218492128995,-0.33388713251641217,-0.5846136979762885,1
-0.02508578972154334,0.3653668615113901,0.845164839584712,0.16589903093866248,-1.1730015831345122,0.080188484345127,-0.4966186397742973,-0.33388713251641217,0.9533700305459475,1
-0.7006534470006032,1.9736788672177341,-1.995141842148117,1.6315165845178061,0.8288006497311382,-0.8839527453982343,-0.09657253368137882,1.0436227260505793,-0.5846136979762885,5
0.06351324729866795,-0.7241348197735561,0.5199388836611055,-0.33602478878022235,0.3585786487224344,0.18731528764994482,-0.3205983530934141,-0.33388713251641217,-0.5846136979762885,0
0.8719794601080038,-0.06265165613626662,-1.995141842148117,-0.11517830810391327,-0.5818653532949923,-0.29475532722173575,2.9357769505029427,-0.33388713251641217,-0.5846136979762885,3
-0.8593933883284441,1.856946544222919,0.6572565094955171,0.5674380867137703,-1.0923920972473016,-0.5982812699187199,-1.1766970201322593,-0.33388713251641217,0.6457732848415003,1
-0.3684070581748723,0.06705092496908341,0.5199388836611055,0.507207228347504,-0.21912266680256312,0.22302422208488415,-0.672638926455182,-0.33388713251641217,-0.5846136979762885,1
-0.715419953170652,0.6377422818326249,0.5488478575209816,-0.41633259993524396,0.26453424852068214,-0.2233374583518572,-0.7126435370644737,-0.33388713251641217,0.8508377819777986,1
-0.2355085026445144,-0.1664137210205471,0.606665805240734,-0.6371790806115535,0.5466674491259197,0.15160635321500548,-0.5286223282617315,-0.33388713251641217,-0.5846136979762885,0
2.0754497129657987,0.015169892526942008,-1.995141842148117,0.24620684209368413,-0.6221700962385976,-0.31260979443920545,2.7277529753346252,-0.33388713251641217,-0.5846136979762885,3
1.3481992840916086,0.10596169930068772,0.7945741353299286,-1.1591798531191935,-1.199871411763576,-0.47329999939643236,0.5675040024328646,-0.33388713251641217,0.5432410362733513,0
-0.6785036877455708,1.0009095089276054,-1.995141842148117,2.6755181295330868,1.0437592787636873,-0.8125348765283558,0.16745789633994604,0.488506812896717,0.3381765391370531,5
-0.9258426660936231,0.5728909912799487,-1.995141842148117,2.173594309814202,0.734756249529405,-0.6339902043536592,0.46349201484870656,1.3314606069451744,-0.4820814494081394,5
-0.597287903810343,0.015169892526942008,0.6138930487057028,0.16589903093866248,-0.393776552891507,0.2944420909547628,-0.6406352379677492,-0.33388713251641217,-0.5846136979762885,1
-0.5714465180127779,0.17081298985336388,0.5849840748458267,0.025360361417374598,-0.31316706700429625,0.2587331565198235,-0.6966416928207573,-0.33388713251641217,-0.5846136979762885,1
-0.19120898413444976,-0.9316589495421148,0.4765754228712913,-0.516717363879021,0.6944515065857997,0.16946082043247515,-0.15257898853438762,-0.33388713251641217,-0.5846136979762885,0
3.1644795430058172,-2.8512571499013024,-1.995141842148117,-1.3800263337955028,0.707886420900322,-0.8839527453982343,4.679977973068067,-0.33388713251641217,-0.5846136979762885,1
1.8761018796703437,0.015169892526942008,0.418757475151539,-0.4564865055127548,-0.40721146720604845,0.18731528764994482,-0.0005614682190789902,-0.33388713251641217,-0.5846136979762885,5
-0.7449529655107497,-0.6852240454419495,0.4910299098012294,-0.014793544160136222,0.5063627061823144,-0.0983561878295696,-0.4486131070431481,-0.33388713251641217,-0.5846136979762885,1
-0.08784344094418958,-0.9575994657631867,0.5633023444509198,-0.2356400248364453,0.3585786487224344,0.13375188599753582,-0.06456884519394601,-0.33388713251641217,-0.5846136979762885,0
-1.018133329656367,1.2343741549172382,-1.995141842148117,2.4145177432792666,0.5601023634404421,-0.8125348765283558,0.19946158482738027,0.9819431801445945,-0.5846136979762885,5
0.3440768645292687,0.08002118307961817,0.5199388836611055,-0.21556307204768987,-0.9849127827310269,0.09804295156259667,0.13545420785251325,-0.33388713251641217,-0.5846136979762885,0
-0.0361606693490595,-0.8927481752105105,0.5199388836611055,-0.21556307204768987,0.37201356303695676,0.2587331565198235,-0.12057530004695483,-0.33388713251641217,-0.5846136979762885,0
-1.811833036295654,-0.5295809481155299,-1.995141842148117,3.177441949251971,-2.9598451869676135,10.203671396650421,-1.4967339050065944,-0.33388713251641217,-0.5846136979762885,3
-0.8077106167333961,-0.3998783670101799,0.46934817940632245,0.24620684209368413,0.7750609924730104,-0.7589714748759467,-0.3526020415808469,-0.33388713251641217,1.3634990248185437,1
-0.2355085026445144,-1.5931421131794044,0.35371228396681786,-0.5970251750340427,1.1646735075945034,0.22302422208488415,0.05544498663392983,-0.33388713251641217,1.876160267659289,1
1.078710546488524,0.33942634529031823,0.5994385617757648,-0.6773329861890639,-0.9714778684165045,-0.7232625404410076,0.45549109272684835,-0.33388713251641217,-0.5846136979762885,0
-0.26134988844207946,-0.8408671427683714,0.6211202921706721,-0.33602478878022235,0.14362001968988516,0.16946082043247515,-0.10457345580323843,-0.33388713251641217,-0.5846136979762885,0
2.226806401208656,0.5210099588378097,0.10075876269290171,-0.5769482222452873,-2.059705927893792,-0.7411170076584771,1.5676192676651608,-0.33388713251641217,-0.5846136979762885,1
-0.8003273636483306,-0.24423526968375806,0.418757475151539,0.025360361417374598,0.5601023634404421,-0.18762852391691784,-0.4886177176524391,-0.33388713251641217,-0.5846136979762885,1
-0.22074199647446552,-0.7630455941051605,0.5343933705910436,-0.6371790806115535,0.7884959067875328,0.11589741878006633,-0.22458728763111285,-0.33388713251641217,-0.5846136979762885,0
-0.10260994711423846,0.2745750547376444,0.6428020225655791,-1.6209497672605675,0.4257532202951036,-0.7768259420934165,0.07944775299950443,-0.33388713251641217,-0.5846136979762885,2
-1.0808909808790133,0.7544746048274401,-0.05824059353641678,4.10098177753472,-3.7525051315251603,2.1155977471366674,-2.3688344162891566,4.189279567255799,-0.5846136979762885,3
4.866319379102249,-3.499770055428055,-1.995141842148117,1.2902083871089645,-3.8599844460414348,0.15160635321500548,3.575850720251613,6.14246518761198,2.2862892619318855,1
0.1631871639463954,-0.29611630212589946,0.6283475356356409,-0.777717750132841,0.1973596769480129,0.13375188599753582,-0.3366001973371305,-0.14884849479845813,1.1584345276822459,1
0.3145438521892529,0.04111040874801386,0.7728924049350216,-0.3962556471464886,-0.17881792385895776,0.13375188599753582,-0.4966186397742973,-0.33388713251641217,0.8508377819777986,1
-0.6157460365229246,1.2214038968067011,-1.995141842148117,2.57513336558931,0.2242295055770768,-0.8839527453982343,0.49549570333613935,0.7763446937913122,-0.5846136979762885,5
-0.597287903810343,-0.03671113991519708,0.5271661271260747,0.12574512536115165,-0.044468780713600185,0.3122965581722325,-0.6006306273584567,-0.33388713251641217,0.4407087877052022,1
0.11150439235126532,-0.3739378507891081,0.05739530190308749,-0.3561017415689778,0.2242295055770768,0.09804295156259667,0.19146066270552206,-0.33388713251641217,-0.5846136979762885,0
