{
  "name": "wine",
  "path": "./datasets/wine/",
  "task": "Multi_Classification",
  "y": "quality",
  "mod_tokens": [
    "svm_l",
    "log_reg",
    "gauss_nb",
    "d_tree",
    "perceptron",
    "mlp1",
    "mlp2",
    "knn_class",
    "rf_class",
    "svm_rbf_c",
    "svm_poly_c",
    "svm_sig_c",
    "xgb_class"
  ],
  "folds": 5,
  "measure": "pyRAPL"
}